%YAML 1.1
%TAG !u! tag:unity3d.com,2011:
--- !u!114 &11400000
MonoBehaviour:
  m_ObjectHideFlags: 0
  m_CorrespondingSourceObject: {fileID: 0}
  m_PrefabInstance: {fileID: 0}
  m_PrefabAsset: {fileID: 0}
  m_GameObject: {fileID: 0}
  m_Enabled: 1
  m_EditorHideFlags: 0
  m_Script: {fileID: 11500000, guid: dc4543e9e42dac84bb10ad9c71adb6cd, type: 3}
  m_Name: LevelPrefabsDataSet
  m_EditorClassIdentifier: 
  playerPrf: {fileID: 9007904780083572907, guid: c1508a6883f74ef459ad39e3f79e31ae, type: 3}
  enemyPrf: {fileID: 8134422133638471118, guid: e8210f612821d4b43bb455ad937bf1cd, type: 3}
  shieldPrf: {fileID: 6353589618607245415, guid: 9cadd162335840e40a4deec0a07829f1, type: 3}
  coinFlyPrf: {fileID: 3235237707194486624, guid: 167ce85e176454b4285e6c93ed491b23, type: 3}
